 

CARIBBEAN PAVILION
ew York World's Fair 1964-1965,

 
  
     
  

This_pavilion
faced "seve!

features seal bande

dancers ‘and an any island
products.

 

“suger

pr-sasr.8

 

pose ey

i
i
i
:
i
2

 

OFFICIAL Warts

Post Cc rd

 

PLACE

STAMP
HERE
wee

 

 

 
